Functions to Automate Downloading Geospatial Data Available from Several Federated Data Sources • FedData
…
# Also, a convenience function loading the NASS CDL categories and hex colors
cdl_colors()
#> # A tibble: 256 × 3
#>       ID `Land Cover` Color    
#>    <int> <fct>        <chr>    
#>  1     0 Background   #00000000
#>  2     1 Corn         #FFD300FF
#>  3     2 Cotton       #FF2626FF
#>  4     3 Rice         #00A8E4FF
#>  5     4 Sorghum      #FF9E0BFF
#>  6     5 Soybeans     #267000FF
#>  7     6 Sunflower    #FFFF00FF
#>  8     7 <NA>         #000000FF
#>  9     8 <NA>         #000000FF
#> 10     9 <NA>         #000000FF
#> # … with 246 more rows
…
