A basic plotting function for NHD data. — plot_nhd • FedData
…
#> Geodetic CRS:  WGS 84
#> # A tibble: 2 x 10
#>   OBJECTID         FDATE RESOLUTION GNIS_ID  GNIS_NAME    REACHCODE FTYPE FCODE
#>      <int>         <dbl>      <int> <chr>    <chr>        <chr>     <int> <int>
#> 1    15463 1057104000000          2 00179195 Rock Springs NA          458 45800
#> 2   409387 1425639399000          2 NA       NA           NA          367 36701
#> # … with 2 more variables: PERMANENT_IDENTIFIER <chr>, geom <POINT [°]>
#> 
#> $Flowline
#> Simple feature collection with 403 features and 16 fields
#> Geometry type: MULTILINESTRING
#> Dimension:     XY
#> Bounding box:  xmin: -108.5547 ymin: 37.15643 xmax: -108.3398 ymax: 37.34939
#> Geodetic CRS:  WGS 84
#> # A tibble: 403 x 17
#>    OBJECTID PERMANENT_IDENTIF…      FDATE RESOLUTION GNIS_ID GNIS_NAME  LENGTHKM
#>       <int> <chr>                   <dbl>      <int> <chr>   <chr>         <dbl>
#>  1    85103 89636091              1.33e12          2 009022… Mancos Ri…    0.042
#>  2   151209 82523310              1.60e12          2 NA      NA            1.64 
#>  3   246493 89638649              1.33e12          2 NA      NA            0.859
#>  4   313169 82523368              1.33e12          2 NA      NA            3.79 
#>  5   408579 89635301              1.33e12          2 NA      NA            0.01 
#>  6   408581 89638491              1.33e12          2 NA      NA            0.762
#>  7   408585 89634469              1.33e12          2 NA      NA            0.6  
#>  8   474775 82531672              1.60e12          2 NA      NA            0.437
#>  9   570422 89634463              1.33e12          2 NA      NA            1.32 
#> 10   570441 89639153              1.44e12          2 009022… Mancos Ri…    0.955
#> # … with 393 more rows, and 10 more variables: REACHCODE <chr>, FLOWDIR <int>,
#> #   WBAREA_PERMANENT_IDENTIFIER <chr>, FTYPE <int>, FCODE <int>,
#> #   INNETWORK <int>, MAINPATH <int>, VISIBILITYFILTER <int>,
#> #   SHAPE_Length <dbl>, geom <MULTILINESTRING [°]>
…
